2013-11-23 22:08:45.271 HelloWorld[87075:80b] Multi-tasking -> Device: YES, App: YES
2013-11-23 22:08:45.687 HelloWorld[87075:80b] Resetting plugins due to page load.
2013-11-23 22:08:45.977 HelloWorld[87075:80b] Finished load of: file:///Users/syous/Library/Application%20Support/iPhone%20Simulator/7.0.3/Applications/55E030B7-B085-4ADB-A96C-59A432D24237/HelloWorld.app/www/index.html
2013-11-23 22:48:11.487 HelloWorld[88304:80b] Multi-tasking -> Device: YES, App: YES
2013-11-23 22:48:11.807 HelloWorld[88304:80b] Resetting plugins due to page load.
2013-11-23 22:48:12.126 HelloWorld[88304:80b] Finished load of: file:///Users/syous/Library/Application%20Support/iPhone%20Simulator/7.0.3/Applications/55E030B7-B085-4ADB-A96C-59A432D24237/HelloWorld.app/www/index.html
2013-11-23 22:49:10.692 HelloWorld[88884:80b] Multi-tasking -> Device: YES, App: YES
2013-11-23 22:49:10.913 HelloWorld[88884:80b] Resetting plugins due to page load.
2013-11-23 22:49:11.511 HelloWorld[88884:80b] Finished load of: file:///Users/syous/Library/Application%20Support/iPhone%20Simulator/7.0.3/Applications/55E030B7-B085-4ADB-A96C-59A432D24237/HelloWorld.app/www/index.html
2013-11-23 22:50:38.378 HelloWorld[89684:80b] Multi-tasking -> Device: YES, App: YES
2013-11-23 22:50:38.590 HelloWorld[89684:80b] Resetting plugins due to page load.
2013-11-23 22:50:39.124 HelloWorld[89684:80b] Finished load of: file:///Users/syous/Library/Application%20Support/iPhone%20Simulator/7.0.3/Applications/55E030B7-B085-4ADB-A96C-59A432D24237/HelloWorld.app/www/index.html
2013-11-23 23:20:30.758 HelloWorld[90864:80b] Multi-tasking -> Device: YES, App: YES
2013-11-23 23:20:31.084 HelloWorld[90864:80b] Resetting plugins due to page load.
2013-11-23 23:20:31.504 HelloWorld[90864:80b] Finished load of: file:///Users/syous/Library/Application%20Support/iPhone%20Simulator/7.0.3/Applications/55E030B7-B085-4ADB-A96C-59A432D24237/HelloWorld.app/www/index.html
2013-11-23 23:21:39.886 HelloWorld[91456:80b] Multi-tasking -> Device: YES, App: YES
2013-11-23 23:21:40.167 HelloWorld[91456:80b] Resetting plugins due to page load.
2013-11-23 23:21:40.725 HelloWorld[91456:80b] Finished load of: file:///Users/syous/Library/Application%20Support/iPhone%20Simulator/7.0.3/Applications/55E030B7-B085-4ADB-A96C-59A432D24237/HelloWorld.app/www/index.html
2013-11-23 23:22:04.343 HelloWorld[91990:80b] Multi-tasking -> Device: YES, App: YES
2013-11-23 23:22:04.625 HelloWorld[91990:80b] Resetting plugins due to page load.
2013-11-23 23:22:05.077 HelloWorld[91990:80b] Finished load of: file:///Users/syous/Library/Application%20Support/iPhone%20Simulator/7.0.3/Applications/55E030B7-B085-4ADB-A96C-59A432D24237/HelloWorld.app/www/index.html
2013-11-23 23:22:16.448 HelloWorld[91990:4003] void SendDelegateMessage(NSInvocation *): delegate (webView:runJavaScriptAlertPanelWithMessage:initiatedByFrame:) failed to return after waiting 10 seconds. main run loop mode: kCFRunLoopDefaultMode
2013-11-23 23:25:25.229 HelloWorld[92603:80b] Multi-tasking -> Device: YES, App: YES
2013-11-23 23:25:25.507 HelloWorld[92603:80b] Resetting plugins due to page load.
2013-11-23 23:25:25.960 HelloWorld[92603:80b] Finished load of: file:///Users/syous/Library/Application%20Support/iPhone%20Simulator/7.0.3/Applications/55E030B7-B085-4ADB-A96C-59A432D24237/HelloWorld.app/www/index.html
2013-11-23 23:34:45.440 HelloWorld[93393:80b] Multi-tasking -> Device: YES, App: YES
2013-11-23 23:34:45.643 HelloWorld[93393:80b] Resetting plugins due to page load.
2013-11-23 23:34:46.138 HelloWorld[93393:80b] Finished load of: file:///Users/syous/Library/Application%20Support/iPhone%20Simulator/7.0.3/Applications/55E030B7-B085-4ADB-A96C-59A432D24237/HelloWorld.app/www/index.html
2013-11-23 23:40:45.124 HelloWorld[94073:80b] Multi-tasking -> Device: YES, App: YES
2013-11-23 23:40:45.362 HelloWorld[94073:80b] Resetting plugins due to page load.
2013-11-23 23:40:45.875 HelloWorld[94073:80b] Finished load of: file:///Users/syous/Library/Application%20Support/iPhone%20Simulator/7.0.3/Applications/55E030B7-B085-4ADB-A96C-59A432D24237/HelloWorld.app/www/index.html
2013-11-23 23:40:57.669 HelloWorld[94073:4003] void SendDelegateMessage(NSInvocation *): delegate (webView:runJavaScriptAlertPanelWithMessage:initiatedByFrame:) failed to return after waiting 10 seconds. main run loop mode: kCFRunLoopDefaultMode
2013-11-23 23:46:26.928 HelloWorld[94741:80b] Multi-tasking -> Device: YES, App: YES
2013-11-23 23:46:27.295 HelloWorld[94741:80b] Resetting plugins due to page load.
2013-11-23 23:46:27.907 HelloWorld[94741:80b] Finished load of: file:///Users/syous/Library/Application%20Support/iPhone%20Simulator/7.0.3/Applications/55E030B7-B085-4ADB-A96C-59A432D24237/HelloWorld.app/www/index.html
Nov 23 23:46:35 aldebaran.local HelloWorld[94741] <Error>: CGContextSetFillColorWithColor: invalid context 0x0. This is a serious error. This application, or a library it uses, is using an invalid context  and is thereby contributing to an overall degradation of system stability and reliability. This notice is a courtesy: please fix this problem. It will become a fatal error in an upcoming update.
Nov 23 23:46:35 aldebaran.local HelloWorld[94741] <Error>: CGContextSetStrokeColorWithColor: invalid context 0x0. This is a serious error. This application, or a library it uses, is using an invalid context  and is thereby contributing to an overall degradation of system stability and reliability. This notice is a courtesy: please fix this problem. It will become a fatal error in an upcoming update.
Nov 23 23:46:35 aldebaran.local HelloWorld[94741] <Error>: CGContextSaveGState: invalid context 0x0. This is a serious error. This application, or a library it uses, is using an invalid context  and is thereby contributing to an overall degradation of system stability and reliability. This notice is a courtesy: please fix this problem. It will become a fatal error in an upcoming update.
Nov 23 23:46:35 aldebaran.local HelloWorld[94741] <Error>: CGContextSetFlatness: invalid context 0x0. This is a serious error. This application, or a library it uses, is using an invalid context  and is thereby contributing to an overall degradation of system stability and reliability. This notice is a courtesy: please fix this problem. It will become a fatal error in an upcoming update.
Nov 23 23:46:35 aldebaran.local HelloWorld[94741] <Error>: CGContextAddPath: invalid context 0x0. This is a serious error. This application, or a library it uses, is using an invalid context  and is thereby contributing to an overall degradation of system stability and reliability. This notice is a courtesy: please fix this problem. It will become a fatal error in an upcoming update.
Nov 23 23:46:35 aldebaran.local HelloWorld[94741] <Error>: CGContextDrawPath: invalid context 0x0. This is a serious error. This application, or a library it uses, is using an invalid context  and is thereby contributing to an overall degradation of system stability and reliability. This notice is a courtesy: please fix this problem. It will become a fatal error in an upcoming update.
Nov 23 23:46:35 aldebaran.local HelloWorld[94741] <Error>: CGContextRestoreGState: invalid context 0x0. This is a serious error. This application, or a library it uses, is using an invalid context  and is thereby contributing to an overall degradation of system stability and reliability. This notice is a courtesy: please fix this problem. It will become a fatal error in an upcoming update.
Nov 23 23:46:35 aldebaran.local HelloWorld[94741] <Error>: CGContextSaveGState: invalid context 0x0. This is a serious error. This application, or a library it uses, is using an invalid context  and is thereby contributing to an overall degradation of system stability and reliability. This notice is a courtesy: please fix this problem. It will become a fatal error in an upcoming update.
Nov 23 23:46:35 aldebaran.local HelloWorld[94741] <Error>: CGContextSetFlatness: invalid context 0x0. This is a serious error. This application, or a library it uses, is using an invalid context  and is thereby contributing to an overall degradation of system stability and reliability. This notice is a courtesy: please fix this problem. It will become a fatal error in an upcoming update.
Nov 23 23:46:35 aldebaran.local HelloWorld[94741] <Error>: CGContextAddPath: invalid context 0x0. This is a serious error. This application, or a library it uses, is using an invalid context  and is thereby contributing to an overall degradation of system stability and reliability. This notice is a courtesy: please fix this problem. It will become a fatal error in an upcoming update.
Nov 23 23:46:35 aldebaran.local HelloWorld[94741] <Error>: CGContextDrawPath: invalid context 0x0. This is a serious error. This application, or a library it uses, is using an invalid context  and is thereby contributing to an overall degradation of system stability and reliability. This notice is a courtesy: please fix this problem. It will become a fatal error in an upcoming update.
Nov 23 23:46:35 aldebaran.local HelloWorld[94741] <Error>: CGContextRestoreGState: invalid context 0x0. This is a serious error. This application, or a library it uses, is using an invalid context  and is thereby contributing to an overall degradation of system stability and reliability. This notice is a courtesy: please fix this problem. It will become a fatal error in an upcoming update.
Nov 23 23:46:35 aldebaran.local HelloWorld[94741] <Error>: CGContextSetFillColorWithColor: invalid context 0x0. This is a serious error. This application, or a library it uses, is using an invalid context  and is thereby contributing to an overall degradation of system stability and reliability. This notice is a courtesy: please fix this problem. It will become a fatal error in an upcoming update.
Nov 23 23:46:35 aldebaran.local HelloWorld[94741] <Error>: CGContextSetStrokeColorWithColor: invalid context 0x0. This is a serious error. This application, or a library it uses, is using an invalid context  and is thereby contributing to an overall degradation of system stability and reliability. This notice is a courtesy: please fix this problem. It will become a fatal error in an upcoming update.
Nov 23 23:46:35 aldebaran.local HelloWorld[94741] <Error>: CGContextSetFillColorWithColor: invalid context 0x0. This is a serious error. This application, or a library it uses, is using an invalid context  and is thereby contributing to an overall degradation of system stability and reliability. This notice is a courtesy: please fix this problem. It will become a fatal error in an upcoming update.
Nov 23 23:46:35 aldebaran.local HelloWorld[94741] <Error>: CGContextSetStrokeColorWithColor: invalid context 0x0. This is a serious error. This application, or a library it uses, is using an invalid context  and is thereby contributing to an overall degradation of system stability and reliability. This notice is a courtesy: please fix this problem. It will become a fatal error in an upcoming update.
Nov 23 23:46:35 aldebaran.local HelloWorld[94741] <Error>: CGContextGetBlendMode: invalid context 0x0. This is a serious error. This application, or a library it uses, is using an invalid context  and is thereby contributing to an overall degradation of system stability and reliability. This notice is a courtesy: please fix this problem. It will become a fatal error in an upcoming update.
Nov 23 23:46:35 aldebaran.local HelloWorld[94741] <Error>: CGContextSetBlendMode: invalid context 0x0. This is a serious error. This application, or a library it uses, is using an invalid context  and is thereby contributing to an overall degradation of system stability and reliability. This notice is a courtesy: please fix this problem. It will become a fatal error in an upcoming update.
Nov 23 23:46:35 aldebaran.local HelloWorld[94741] <Error>: CGContextFillRects: invalid context 0x0. This is a serious error. This application, or a library it uses, is using an invalid context  and is thereby contributing to an overall degradation of system stability and reliability. This notice is a courtesy: please fix this problem. It will become a fatal error in an upcoming update.
Nov 23 23:46:35 aldebaran.local HelloWorld[94741] <Error>: CGContextSetBlendMode: invalid context 0x0. This is a serious error. This application, or a library it uses, is using an invalid context  and is thereby contributing to an overall degradation of system stability and reliability. This notice is a courtesy: please fix this problem. It will become a fatal error in an upcoming update.
Nov 23 23:46:35 aldebaran.local HelloWorld[94741] <Error>: CGContextSetFillColorWithColor: invalid context 0x0. This is a serious error. This application, or a library it uses, is using an invalid context  and is thereby contributing to an overall degradation of system stability and reliability. This notice is a courtesy: please fix this problem. It will become a fatal error in an upcoming update.
Nov 23 23:46:35 aldebaran.local HelloWorld[94741] <Error>: CGContextSetStrokeColorWithColor: invalid context 0x0. This is a serious error. This application, or a library it uses, is using an invalid context  and is thereby contributing to an overall degradation of system stability and reliability. This notice is a courtesy: please fix this problem. It will become a fatal error in an upcoming update.
Nov 23 23:46:35 aldebaran.local HelloWorld[94741] <Error>: CGContextGetBlendMode: invalid context 0x0. This is a serious error. This application, or a library it uses, is using an invalid context  and is thereby contributing to an overall degradation of system stability and reliability. This notice is a courtesy: please fix this problem. It will become a fatal error in an upcoming update.
Nov 23 23:46:35 aldebaran.local HelloWorld[94741] <Error>: CGContextSetBlendMode: invalid context 0x0. This is a serious error. This application, or a library it uses, is using an invalid context  and is thereby contributing to an overall degradation of system stability and reliability. This notice is a courtesy: please fix this problem. It will become a fatal error in an upcoming update.
Nov 23 23:46:35 aldebaran.local HelloWorld[94741] <Error>: CGContextFillRects: invalid context 0x0. This is a serious error. This application, or a library it uses, is using an invalid context  and is thereby contributing to an overall degradation of system stability and reliability. This notice is a courtesy: please fix this problem. It will become a fatal error in an upcoming update.
Nov 23 23:46:35 aldebaran.local HelloWorld[94741] <Error>: CGContextSetBlendMode: invalid context 0x0. This is a serious error. This application, or a library it uses, is using an invalid context  and is thereby contributing to an overall degradation of system stability and reliability. This notice is a courtesy: please fix this problem. It will become a fatal error in an upcoming update.
Nov 23 23:46:35 aldebaran.local HelloWorld[94741] <Error>: CGContextSetFillColorWithColor: invalid context 0x0. This is a serious error. This application, or a library it uses, is using an invalid context  and is thereby contributing to an overall degradation of system stability and reliability. This notice is a courtesy: please fix this problem. It will become a fatal error in an upcoming update.
Nov 23 23:46:35 aldebaran.local HelloWorld[94741] <Error>: CGContextSetStrokeColorWithColor: invalid context 0x0. This is a serious error. This application, or a library it uses, is using an invalid context  and is thereby contributing to an overall degradation of system stability and reliability. This notice is a courtesy: please fix this problem. It will become a fatal error in an upcoming update.
Nov 23 23:46:35 aldebaran.local HelloWorld[94741] <Error>: CGContextGetBlendMode: invalid context 0x0. This is a serious error. This application, or a library it uses, is using an invalid context  and is thereby contributing to an overall degradation of system stability and reliability. This notice is a courtesy: please fix this problem. It will become a fatal error in an upcoming update.
Nov 23 23:46:35 aldebaran.local HelloWorld[94741] <Error>: CGContextSetBlendMode: invalid context 0x0. This is a serious error. This application, or a library it uses, is using an invalid context  and is thereby contributing to an overall degradation of system stability and reliability. This notice is a courtesy: please fix this problem. It will become a fatal error in an upcoming update.
Nov 23 23:46:35 aldebaran.local HelloWorld[94741] <Error>: CGContextFillRects: invalid context 0x0. This is a serious error. This application, or a library it uses, is using an invalid context  and is thereby contributing to an overall degradation of system stability and reliability. This notice is a courtesy: please fix this problem. It will become a fatal error in an upcoming update.
Nov 23 23:46:35 aldebaran.local HelloWorld[94741] <Error>: CGContextSetBlendMode: invalid context 0x0. This is a serious error. This application, or a library it uses, is using an invalid context  and is thereby contributing to an overall degradation of system stability and reliability. This notice is a courtesy: please fix this problem. It will become a fatal error in an upcoming update.
2013-11-23 23:49:25.828 HelloWorld[95358:80b] Multi-tasking -> Device: YES, App: YES
2013-11-23 23:49:26.180 HelloWorld[95358:80b] Resetting plugins due to page load.
2013-11-23 23:49:26.665 HelloWorld[95358:80b] Finished load of: file:///Users/syous/Library/Application%20Support/iPhone%20Simulator/7.0.3/Applications/55E030B7-B085-4ADB-A96C-59A432D24237/HelloWorld.app/www/index.html
2013-11-23 23:50:50.816 HelloWorld[95965:80b] Multi-tasking -> Device: YES, App: YES
2013-11-23 23:50:51.194 HelloWorld[95965:80b] Resetting plugins due to page load.
2013-11-23 23:50:51.683 HelloWorld[95965:80b] Finished load of: file:///Users/syous/Library/Application%20Support/iPhone%20Simulator/7.0.3/Applications/55E030B7-B085-4ADB-A96C-59A432D24237/HelloWorld.app/www/index.html
2013-11-23 23:52:06.591 HelloWorld[96512:80b] Multi-tasking -> Device: YES, App: YES
2013-11-23 23:52:06.805 HelloWorld[96512:80b] Resetting plugins due to page load.
2013-11-23 23:52:07.359 HelloWorld[96512:80b] Finished load of: file:///Users/syous/Library/Application%20Support/iPhone%20Simulator/7.0.3/Applications/55E030B7-B085-4ADB-A96C-59A432D24237/HelloWorld.app/www/index.html
2013-11-23 23:53:22.070 HelloWorld[97065:80b] Multi-tasking -> Device: YES, App: YES
2013-11-23 23:53:22.317 HelloWorld[97065:80b] Resetting plugins due to page load.
2013-11-23 23:53:22.837 HelloWorld[97065:80b] Finished load of: file:///Users/syous/Library/Application%20Support/iPhone%20Simulator/7.0.3/Applications/55E030B7-B085-4ADB-A96C-59A432D24237/HelloWorld.app/www/index.html
2013-11-24 00:39:21.962 HelloWorld[99012:80b] Multi-tasking -> Device: YES, App: YES
2013-11-24 00:39:22.235 HelloWorld[99012:80b] Resetting plugins due to page load.
2013-11-24 00:39:22.827 HelloWorld[99012:80b] Finished load of: file:///Users/syous/Library/Application%20Support/iPhone%20Simulator/7.0.3/Applications/55E030B7-B085-4ADB-A96C-59A432D24237/HelloWorld.app/www/index.html
2013-11-24 00:40:13.793 HelloWorld[99588:80b] Multi-tasking -> Device: YES, App: YES
2013-11-24 00:40:14.125 HelloWorld[99588:80b] Resetting plugins due to page load.
2013-11-24 00:40:14.888 HelloWorld[99588:80b] Finished load of: file:///Users/syous/Library/Application%20Support/iPhone%20Simulator/7.0.3/Applications/55E030B7-B085-4ADB-A96C-59A432D24237/HelloWorld.app/www/index.html
2013-11-24 00:42:10.247 HelloWorld[361:80b] Multi-tasking -> Device: YES, App: YES
2013-11-24 00:42:10.650 HelloWorld[361:80b] Resetting plugins due to page load.
2013-11-24 00:42:11.358 HelloWorld[361:80b] Finished load of: file:///Users/syous/Library/Application%20Support/iPhone%20Simulator/7.0.3/Applications/55E030B7-B085-4ADB-A96C-59A432D24237/HelloWorld.app/www/index.html
2013-11-24 00:43:13.951 HelloWorld[962:80b] Multi-tasking -> Device: YES, App: YES
2013-11-24 00:43:14.237 HelloWorld[962:80b] Resetting plugins due to page load.
2013-11-24 00:43:15.161 HelloWorld[962:80b] Finished load of: file:///Users/syous/Library/Application%20Support/iPhone%20Simulator/7.0.3/Applications/55E030B7-B085-4ADB-A96C-59A432D24237/HelloWorld.app/www/index.html
2013-11-24 01:01:31.308 HelloWorld[2166:80b] Multi-tasking -> Device: YES, App: YES
2013-11-24 01:01:31.785 HelloWorld[2166:80b] Resetting plugins due to page load.
2013-11-24 01:01:32.536 HelloWorld[2166:80b] Finished load of: file:///Users/syous/Library/Application%20Support/iPhone%20Simulator/7.0.3/Applications/55E030B7-B085-4ADB-A96C-59A432D24237/HelloWorld.app/www/index.html
2013-11-24 03:37:57.037 HelloWorld[6983:80b] Multi-tasking -> Device: YES, App: YES
2013-11-24 03:37:57.322 HelloWorld[6983:80b] Resetting plugins due to page load.
2013-11-24 03:37:58.036 HelloWorld[6983:4103] ERROR whitelist rejection: url='http://query.yahooapis.com/v1/public/yql?format=json&rnd=20131003&diagnostics=true&callback=jQuery19108468256702180952_1385231877506&diagnostics=true&env=store%3A%2F%2Fdatatables.org%2Falltableswithkeys&q=select%20*%20from%20weather.forecast%20where%20woeid%20in%20(SELECT%20woeid%20FROM%20geo.placefinder%20WHERE%20text=%2237.56,126.93%22%20AND%20gflags=%22R%22)%20and%20u=%22c%22&_=1385231877507'
2013-11-24 03:37:58.037 HelloWorld[6983:4103] ERROR whitelist rejection: url='http://query.yahooapis.com/v1/public/yql?format=json&rnd=20131003&diagnostics=true&callback=jQuery19108468256702180952_1385231877506&diagnostics=true&env=store%3A%2F%2Fdatatables.org%2Falltableswithkeys&q=select%20*%20from%20weather.forecast%20where%20woeid%20in%20(SELECT%20woeid%20FROM%20geo.placefinder%20WHERE%20text=%2237.56,126.93%22%20AND%20gflags=%22R%22)%20and%20u=%22c%22&_=1385231877507'
2013-11-24 03:37:58.039 HelloWorld[6983:4103] ERROR whitelist rejection: url='http://query.yahooapis.com/v1/public/yql?format=json&rnd=20131003&diagnostics=true&callback=jQuery19108468256702180952_1385231877506&diagnostics=true&env=store%3A%2F%2Fdatatables.org%2Falltableswithkeys&q=select%20*%20from%20weather.forecast%20where%20woeid%20in%20(SELECT%20woeid%20FROM%20geo.placefinder%20WHERE%20text=%2237.56,126.93%22%20AND%20gflags=%22R%22)%20and%20u=%22c%22&_=1385231877507'
2013-11-24 03:37:58.138 HelloWorld[6983:80b] Finished load of: file:///Users/syous/Library/Application%20Support/iPhone%20Simulator/7.0.3/Applications/55E030B7-B085-4ADB-A96C-59A432D24237/HelloWorld.app/www/index.html
2013-11-24 03:39:43.486 HelloWorld[7594:80b] Multi-tasking -> Device: YES, App: YES
2013-11-24 03:39:43.964 HelloWorld[7594:80b] Resetting plugins due to page load.
2013-11-24 03:39:44.669 HelloWorld[7594:80b] Finished load of: file:///Users/syous/Library/Application%20Support/iPhone%20Simulator/7.0.3/Applications/55E030B7-B085-4ADB-A96C-59A432D24237/HelloWorld.app/www/index.html
2013-11-24 03:39:44.680 HelloWorld[7594:4103] ERROR whitelist rejection: url='http://query.yahooapis.com/v1/public/yql?format=json&rnd=20131003&diagnostics=true&callback=jQuery19106616193768568337_1385231984207&diagnostics=true&env=store%3A%2F%2Fdatatables.org%2Falltableswithkeys&q=select%20*%20from%20weather.forecast%20where%20woeid%20in%20(SELECT%20woeid%20FROM%20geo.placefinder%20WHERE%20text=%2237.56,126.93%22%20AND%20gflags=%22R%22)%20and%20u=%22c%22&_=1385231984208'
2013-11-24 03:39:44.681 HelloWorld[7594:4103] ERROR whitelist rejection: url='http://query.yahooapis.com/v1/public/yql?format=json&rnd=20131003&diagnostics=true&callback=jQuery19106616193768568337_1385231984207&diagnostics=true&env=store%3A%2F%2Fdatatables.org%2Falltableswithkeys&q=select%20*%20from%20weather.forecast%20where%20woeid%20in%20(SELECT%20woeid%20FROM%20geo.placefinder%20WHERE%20text=%2237.56,126.93%22%20AND%20gflags=%22R%22)%20and%20u=%22c%22&_=1385231984208'
2013-11-24 03:39:44.682 HelloWorld[7594:4103] ERROR whitelist rejection: url='http://query.yahooapis.com/v1/public/yql?format=json&rnd=20131003&diagnostics=true&callback=jQuery19106616193768568337_1385231984207&diagnostics=true&env=store%3A%2F%2Fdatatables.org%2Falltableswithkeys&q=select%20*%20from%20weather.forecast%20where%20woeid%20in%20(SELECT%20woeid%20FROM%20geo.placefinder%20WHERE%20text=%2237.56,126.93%22%20AND%20gflags=%22R%22)%20and%20u=%22c%22&_=1385231984208'
2013-11-24 03:40:59.643 HelloWorld[8188:80b] Multi-tasking -> Device: YES, App: YES
2013-11-24 03:40:59.854 HelloWorld[8188:80b] Resetting plugins due to page load.
2013-11-24 03:41:00.707 HelloWorld[8188:80b] Finished load of: file:///Users/syous/Library/Application%20Support/iPhone%20Simulator/7.0.3/Applications/55E030B7-B085-4ADB-A96C-59A432D24237/HelloWorld.app/www/index.html
2013-11-24 03:41:00.754 HelloWorld[8188:4003] ERROR whitelist rejection: url='http://query.yahooapis.com/v1/public/yql?format=json&rnd=20131003&diagnostics=true&callback=jQuery1910442516605835408_1385232060066&diagnostics=true&env=store%3A%2F%2Fdatatables.org%2Falltableswithkeys&q=select%20*%20from%20weather.forecast%20where%20woeid%20in%20(SELECT%20woeid%20FROM%20geo.placefinder%20WHERE%20text=%2237.56,126.93%22%20AND%20gflags=%22R%22)%20and%20u=%22c%22&_=1385232060067'
2013-11-24 03:41:00.756 HelloWorld[8188:4003] ERROR whitelist rejection: url='http://query.yahooapis.com/v1/public/yql?format=json&rnd=20131003&diagnostics=true&callback=jQuery1910442516605835408_1385232060066&diagnostics=true&env=store%3A%2F%2Fdatatables.org%2Falltableswithkeys&q=select%20*%20from%20weather.forecast%20where%20woeid%20in%20(SELECT%20woeid%20FROM%20geo.placefinder%20WHERE%20text=%2237.56,126.93%22%20AND%20gflags=%22R%22)%20and%20u=%22c%22&_=1385232060067'
2013-11-24 03:41:00.760 HelloWorld[8188:4003] ERROR whitelist rejection: url='http://query.yahooapis.com/v1/public/yql?format=json&rnd=20131003&diagnostics=true&callback=jQuery1910442516605835408_1385232060066&diagnostics=true&env=store%3A%2F%2Fdatatables.org%2Falltableswithkeys&q=select%20*%20from%20weather.forecast%20where%20woeid%20in%20(SELECT%20woeid%20FROM%20geo.placefinder%20WHERE%20text=%2237.56,126.93%22%20AND%20gflags=%22R%22)%20and%20u=%22c%22&_=1385232060067'
2013-11-24 03:49:26.845 HelloWorld[9163:80b] Multi-tasking -> Device: YES, App: YES
2013-11-24 03:49:27.566 HelloWorld[9163:80b] Resetting plugins due to page load.
2013-11-24 03:49:28.214 HelloWorld[9163:80b] Finished load of: file:///Users/syous/Library/Application%20Support/iPhone%20Simulator/7.0.3/Applications/55E030B7-B085-4ADB-A96C-59A432D24237/HelloWorld.app/www/index.html
2013-11-24 03:49:28.259 HelloWorld[9163:4103] ERROR whitelist rejection: url='http://query.yahooapis.com/v1/public/yql?format=json&rnd=20131003&diagnostics=true&callback=jQuery19106696440931409597_1385232567706&diagnostics=true&env=store%3A%2F%2Fdatatables.org%2Falltableswithkeys&q=select%20*%20from%20weather.forecast%20where%20woeid%20in%20(SELECT%20woeid%20FROM%20geo.placefinder%20WHERE%20text=%2237.56,126.93%22%20AND%20gflags=%22R%22)%20and%20u=%22c%22&_=1385232567707'
2013-11-24 03:49:28.260 HelloWorld[9163:4103] ERROR whitelist rejection: url='http://query.yahooapis.com/v1/public/yql?format=json&rnd=20131003&diagnostics=true&callback=jQuery19106696440931409597_1385232567706&diagnostics=true&env=store%3A%2F%2Fdatatables.org%2Falltableswithkeys&q=select%20*%20from%20weather.forecast%20where%20woeid%20in%20(SELECT%20woeid%20FROM%20geo.placefinder%20WHERE%20text=%2237.56,126.93%22%20AND%20gflags=%22R%22)%20and%20u=%22c%22&_=1385232567707'
2013-11-24 03:49:28.261 HelloWorld[9163:4103] ERROR whitelist rejection: url='http://query.yahooapis.com/v1/public/yql?format=json&rnd=20131003&diagnostics=true&callback=jQuery19106696440931409597_1385232567706&diagnostics=true&env=store%3A%2F%2Fdatatables.org%2Falltableswithkeys&q=select%20*%20from%20weather.forecast%20where%20woeid%20in%20(SELECT%20woeid%20FROM%20geo.placefinder%20WHERE%20text=%2237.56,126.93%22%20AND%20gflags=%22R%22)%20and%20u=%22c%22&_=1385232567707'
2013-11-24 03:49:31.257 HelloWorld[9163:80b] ERROR whitelist rejection: url='http://naver.com/'
2013-11-24 03:50:11.271 HelloWorld[9757:80b] Multi-tasking -> Device: YES, App: YES
2013-11-24 03:50:11.712 HelloWorld[9757:80b] Resetting plugins due to page load.
2013-11-24 03:50:12.491 HelloWorld[9757:80b] Finished load of: file:///Users/syous/Library/Application%20Support/iPhone%20Simulator/7.0.3/Applications/55E030B7-B085-4ADB-A96C-59A432D24237/HelloWorld.app/www/index.html
2013-11-24 03:50:12.510 HelloWorld[9757:3f03] ERROR whitelist rejection: url='http://query.yahooapis.com/v1/public/yql?format=json&rnd=20131003&diagnostics=true&callback=jQuery19109269203541334718_1385232611933&diagnostics=true&env=store%3A%2F%2Fdatatables.org%2Falltableswithkeys&q=select%20*%20from%20weather.forecast%20where%20woeid%20in%20(SELECT%20woeid%20FROM%20geo.placefinder%20WHERE%20text=%2237.56,126.93%22%20AND%20gflags=%22R%22)%20and%20u=%22c%22&_=1385232611934'
2013-11-24 03:50:12.512 HelloWorld[9757:3f03] ERROR whitelist rejection: url='http://query.yahooapis.com/v1/public/yql?format=json&rnd=20131003&diagnostics=true&callback=jQuery19109269203541334718_1385232611933&diagnostics=true&env=store%3A%2F%2Fdatatables.org%2Falltableswithkeys&q=select%20*%20from%20weather.forecast%20where%20woeid%20in%20(SELECT%20woeid%20FROM%20geo.placefinder%20WHERE%20text=%2237.56,126.93%22%20AND%20gflags=%22R%22)%20and%20u=%22c%22&_=1385232611934'
2013-11-24 03:50:12.512 HelloWorld[9757:3f03] ERROR whitelist rejection: url='http://query.yahooapis.com/v1/public/yql?format=json&rnd=20131003&diagnostics=true&callback=jQuery19109269203541334718_1385232611933&diagnostics=true&env=store%3A%2F%2Fdatatables.org%2Falltableswithkeys&q=select%20*%20from%20weather.forecast%20where%20woeid%20in%20(SELECT%20woeid%20FROM%20geo.placefinder%20WHERE%20text=%2237.56,126.93%22%20AND%20gflags=%22R%22)%20and%20u=%22c%22&_=1385232611934'
2013-11-24 03:50:32.356 HelloWorld[9757:3f03] void SendDelegateMessage(NSInvocation *): delegate (webView:runJavaScriptAlertPanelWithMessage:initiatedByFrame:) failed to return after waiting 10 seconds. main run loop mode: kCFRunLoopDefaultMode
2013-11-24 03:50:32.362 HelloWorld[9757:80b] ERROR whitelist rejection: url='http://naver.com/'
2013-11-24 03:57:12.591 HelloWorld[10499:80b] Multi-tasking -> Device: YES, App: YES
2013-11-24 03:57:13.026 HelloWorld[10499:80b] Resetting plugins due to page load.
2013-11-24 03:57:13.666 HelloWorld[10499:80b] Finished load of: file:///Users/syous/Library/Application%20Support/iPhone%20Simulator/7.0.3/Applications/55E030B7-B085-4ADB-A96C-59A432D24237/HelloWorld.app/www/index.html
2013-11-24 03:57:13.709 HelloWorld[10499:4003] ERROR whitelist rejection: url='http://query.yahooapis.com/v1/public/yql?format=json&rnd=20131003&diagnostics=true&callback=jQuery191040190505096688867_1385233033214&diagnostics=true&env=store%3A%2F%2Fdatatables.org%2Falltableswithkeys&q=select%20*%20from%20weather.forecast%20where%20woeid%20in%20(SELECT%20woeid%20FROM%20geo.placefinder%20WHERE%20text=%2237.56,126.93%22%20AND%20gflags=%22R%22)%20and%20u=%22c%22&_=1385233033215'
2013-11-24 03:57:13.711 HelloWorld[10499:4003] ERROR whitelist rejection: url='http://query.yahooapis.com/v1/public/yql?format=json&rnd=20131003&diagnostics=true&callback=jQuery191040190505096688867_1385233033214&diagnostics=true&env=store%3A%2F%2Fdatatables.org%2Falltableswithkeys&q=select%20*%20from%20weather.forecast%20where%20woeid%20in%20(SELECT%20woeid%20FROM%20geo.placefinder%20WHERE%20text=%2237.56,126.93%22%20AND%20gflags=%22R%22)%20and%20u=%22c%22&_=1385233033215'
2013-11-24 03:57:13.712 HelloWorld[10499:4003] ERROR whitelist rejection: url='http://query.yahooapis.com/v1/public/yql?format=json&rnd=20131003&diagnostics=true&callback=jQuery191040190505096688867_1385233033214&diagnostics=true&env=store%3A%2F%2Fdatatables.org%2Falltableswithkeys&q=select%20*%20from%20weather.forecast%20where%20woeid%20in%20(SELECT%20woeid%20FROM%20geo.placefinder%20WHERE%20text=%2237.56,126.93%22%20AND%20gflags=%22R%22)%20and%20u=%22c%22&_=1385233033215'
2013-11-24 04:00:00.704 HelloWorld[11140:80b] Multi-tasking -> Device: YES, App: YES
2013-11-24 04:00:00.919 HelloWorld[11140:80b] Resetting plugins due to page load.
2013-11-24 04:00:01.879 HelloWorld[11140:80b] Finished load of: file:///Users/syous/Library/Application%20Support/iPhone%20Simulator/7.0.3/Applications/55E030B7-B085-4ADB-A96C-59A432D24237/HelloWorld.app/www/index.html
2013-11-24 04:00:01.904 HelloWorld[11140:3f03] ERROR whitelist rejection: url='http://query.yahooapis.com/v1/public/yql?format=json&rnd=20131004&diagnostics=true&callback=jQuery19105673527591861784_1385233201151&diagnostics=true&env=store%3A%2F%2Fdatatables.org%2Falltableswithkeys&q=select%20*%20from%20weather.forecast%20where%20woeid%20in%20(SELECT%20woeid%20FROM%20geo.placefinder%20WHERE%20text=%2237.56,126.93%22%20AND%20gflags=%22R%22)%20and%20u=%22c%22&_=1385233201152'
2013-11-24 04:00:01.906 HelloWorld[11140:3f03] ERROR whitelist rejection: url='http://query.yahooapis.com/v1/public/yql?format=json&rnd=20131004&diagnostics=true&callback=jQuery19105673527591861784_1385233201151&diagnostics=true&env=store%3A%2F%2Fdatatables.org%2Falltableswithkeys&q=select%20*%20from%20weather.forecast%20where%20woeid%20in%20(SELECT%20woeid%20FROM%20geo.placefinder%20WHERE%20text=%2237.56,126.93%22%20AND%20gflags=%22R%22)%20and%20u=%22c%22&_=1385233201152'
2013-11-24 04:00:01.907 HelloWorld[11140:3f03] ERROR whitelist rejection: url='http://query.yahooapis.com/v1/public/yql?format=json&rnd=20131004&diagnostics=true&callback=jQuery19105673527591861784_1385233201151&diagnostics=true&env=store%3A%2F%2Fdatatables.org%2Falltableswithkeys&q=select%20*%20from%20weather.forecast%20where%20woeid%20in%20(SELECT%20woeid%20FROM%20geo.placefinder%20WHERE%20text=%2237.56,126.93%22%20AND%20gflags=%22R%22)%20and%20u=%22c%22&_=1385233201152'
2013-11-24 04:04:19.315 HelloWorld[11841:80b] Multi-tasking -> Device: YES, App: YES
2013-11-24 04:04:19.836 HelloWorld[11841:80b] Resetting plugins due to page load.
2013-11-24 04:04:20.602 HelloWorld[11841:80b] Finished load of: file:///Users/syous/Library/Application%20Support/iPhone%20Simulator/7.0.3/Applications/55E030B7-B085-4ADB-A96C-59A432D24237/HelloWorld.app/www/index.html
2013-11-24 04:04:36.181 HelloWorld[11841:4203] ERROR whitelist rejection: url='http://query.yahooapis.com/v1/public/yql?format=json&rnd=20131004&diagnostics=true&callback=jQuery191040047073853202164_1385233460121&diagnostics=true&env=store%3A%2F%2Fdatatables.org%2Falltableswithkeys&q=select%20*%20from%20weather.forecast%20where%20woeid%20in%20(SELECT%20woeid%20FROM%20geo.placefinder%20WHERE%20text=%2237.56,126.93%22%20AND%20gflags=%22R%22)%20and%20u=%22c%22&_=1385233460122'
2013-11-24 04:04:36.182 HelloWorld[11841:4203] ERROR whitelist rejection: url='http://query.yahooapis.com/v1/public/yql?format=json&rnd=20131004&diagnostics=true&callback=jQuery191040047073853202164_1385233460121&diagnostics=true&env=store%3A%2F%2Fdatatables.org%2Falltableswithkeys&q=select%20*%20from%20weather.forecast%20where%20woeid%20in%20(SELECT%20woeid%20FROM%20geo.placefinder%20WHERE%20text=%2237.56,126.93%22%20AND%20gflags=%22R%22)%20and%20u=%22c%22&_=1385233460122'
2013-11-24 04:04:36.185 HelloWorld[11841:4203] ERROR whitelist rejection: url='http://query.yahooapis.com/v1/public/yql?format=json&rnd=20131004&diagnostics=true&callback=jQuery191040047073853202164_1385233460121&diagnostics=true&env=store%3A%2F%2Fdatatables.org%2Falltableswithkeys&q=select%20*%20from%20weather.forecast%20where%20woeid%20in%20(SELECT%20woeid%20FROM%20geo.placefinder%20WHERE%20text=%2237.56,126.93%22%20AND%20gflags=%22R%22)%20and%20u=%22c%22&_=1385233460122'
2013-11-24 04:04:49.179 HelloWorld[11841:4203] ERROR whitelist rejection: url='http://query.yahooapis.com/v1/public/yql?format=json&rnd=20131004&diagnostics=true&callback=jQuery191040047073853202164_1385233460121&diagnostics=true&env=store%3A%2F%2Fdatatables.org%2Falltableswithkeys&q=select%20*%20from%20weather.forecast%20where%20woeid%20in%20(SELECT%20woeid%20FROM%20geo.placefinder%20WHERE%20text=%2237.56,126.93%22%20AND%20gflags=%22R%22)%20and%20u=%22c%22&_=1385233460123'
2013-11-24 04:04:49.180 HelloWorld[11841:4203] ERROR whitelist rejection: url='http://query.yahooapis.com/v1/public/yql?format=json&rnd=20131004&diagnostics=true&callback=jQuery191040047073853202164_1385233460121&diagnostics=true&env=store%3A%2F%2Fdatatables.org%2Falltableswithkeys&q=select%20*%20from%20weather.forecast%20where%20woeid%20in%20(SELECT%20woeid%20FROM%20geo.placefinder%20WHERE%20text=%2237.56,126.93%22%20AND%20gflags=%22R%22)%20and%20u=%22c%22&_=1385233460123'
2013-11-24 04:04:49.181 HelloWorld[11841:4203] ERROR whitelist rejection: url='http://query.yahooapis.com/v1/public/yql?format=json&rnd=20131004&diagnostics=true&callback=jQuery191040047073853202164_1385233460121&diagnostics=true&env=store%3A%2F%2Fdatatables.org%2Falltableswithkeys&q=select%20*%20from%20weather.forecast%20where%20woeid%20in%20(SELECT%20woeid%20FROM%20geo.placefinder%20WHERE%20text=%2237.56,126.93%22%20AND%20gflags=%22R%22)%20and%20u=%22c%22&_=1385233460123'
2013-11-24 04:15:06.279 HelloWorld[11841:4203] ERROR whitelist rejection: url='http://query.yahooapis.com/v1/public/yql?format=json&rnd=20131004&diagnostics=true&callback=jQuery191040047073853202164_1385233460121&diagnostics=true&env=store%3A%2F%2Fdatatables.org%2Falltableswithkeys&q=select%20*%20from%20weather.forecast%20where%20woeid%20in%20(SELECT%20woeid%20FROM%20geo.placefinder%20WHERE%20text=%2237.56,126.93%22%20AND%20gflags=%22R%22)%20and%20u=%22c%22&_=1385233460124'
2013-11-24 04:15:06.282 HelloWorld[11841:4203] ERROR whitelist rejection: url='http://query.yahooapis.com/v1/public/yql?format=json&rnd=20131004&diagnostics=true&callback=jQuery191040047073853202164_1385233460121&diagnostics=true&env=store%3A%2F%2Fdatatables.org%2Falltableswithkeys&q=select%20*%20from%20weather.forecast%20where%20woeid%20in%20(SELECT%20woeid%20FROM%20geo.placefinder%20WHERE%20text=%2237.56,126.93%22%20AND%20gflags=%22R%22)%20and%20u=%22c%22&_=1385233460124'
2013-11-24 04:15:06.283 HelloWorld[11841:4203] ERROR whitelist rejection: url='http://query.yahooapis.com/v1/public/yql?format=json&rnd=20131004&diagnostics=true&callback=jQuery191040047073853202164_1385233460121&diagnostics=true&env=store%3A%2F%2Fdatatables.org%2Falltableswithkeys&q=select%20*%20from%20weather.forecast%20where%20woeid%20in%20(SELECT%20woeid%20FROM%20geo.placefinder%20WHERE%20text=%2237.56,126.93%22%20AND%20gflags=%22R%22)%20and%20u=%22c%22&_=1385233460124'
2013-11-24 04:16:45.609 HelloWorld[12656:80b] Multi-tasking -> Device: YES, App: YES
2013-11-24 04:16:45.621 HelloWorld[12656:80b] Unlimited access to network resources
2013-11-24 04:16:45.937 HelloWorld[12656:80b] Resetting plugins due to page load.
2013-11-24 04:16:46.742 HelloWorld[12656:80b] Finished load of: file:///Users/syous/Library/Application%20Support/iPhone%20Simulator/7.0.3/Applications/55E030B7-B085-4ADB-A96C-59A432D24237/HelloWorld.app/www/index.html
2013-11-30 20:55:07.940 HelloWorld[36352:80b] Multi-tasking -> Device: YES, App: YES
2013-11-30 20:55:07.954 HelloWorld[36352:80b] Unlimited access to network resources
2013-11-30 20:55:08.203 HelloWorld[36352:80b] Resetting plugins due to page load.
2013-11-30 20:55:09.207 HelloWorld[36352:80b] Finished load of: file:///Users/syous/Library/Application%20Support/iPhone%20Simulator/7.0.3/Applications/55E030B7-B085-4ADB-A96C-59A432D24237/HelloWorld.app/www/index.html
2013-11-30 21:28:17.648 HelloWorld[37375:80b] Multi-tasking -> Device: YES, App: YES
2013-11-30 21:28:17.662 HelloWorld[37375:80b] Unlimited access to network resources
2013-11-30 21:28:18.001 HelloWorld[37375:80b] Resetting plugins due to page load.
2013-11-30 21:28:18.828 HelloWorld[37375:80b] Finished load of: file:///Users/syous/Library/Application%20Support/iPhone%20Simulator/7.0.3/Applications/55E030B7-B085-4ADB-A96C-59A432D24237/HelloWorld.app/www/index.html
2013-11-30 21:29:26.564 HelloWorld[37941:80b] Multi-tasking -> Device: YES, App: YES
2013-11-30 21:29:26.578 HelloWorld[37941:80b] Unlimited access to network resources
2013-11-30 21:29:26.851 HelloWorld[37941:80b] Resetting plugins due to page load.
2013-11-30 21:29:27.774 HelloWorld[37941:80b] Finished load of: file:///Users/syous/Library/Application%20Support/iPhone%20Simulator/7.0.3/Applications/55E030B7-B085-4ADB-A96C-59A432D24237/HelloWorld.app/www/index.html
2013-11-30 21:50:32.873 HelloWorld[38694:80b] Multi-tasking -> Device: YES, App: YES
2013-11-30 21:50:32.886 HelloWorld[38694:80b] Unlimited access to network resources
2013-11-30 21:50:33.237 HelloWorld[38694:80b] Resetting plugins due to page load.
2013-11-30 21:50:34.121 HelloWorld[38694:80b] Finished load of: file:///Users/syous/Library/Application%20Support/iPhone%20Simulator/7.0.3/Applications/55E030B7-B085-4ADB-A96C-59A432D24237/HelloWorld.app/www/index.html
2013-11-30 22:04:03.342 HelloWorld[39411:80b] Multi-tasking -> Device: YES, App: YES
2013-11-30 22:04:03.355 HelloWorld[39411:80b] Unlimited access to network resources
2013-11-30 22:04:03.566 HelloWorld[39411:80b] Resetting plugins due to page load.
2013-11-30 22:04:04.422 HelloWorld[39411:80b] Finished load of: file:///Users/syous/Library/Application%20Support/iPhone%20Simulator/7.0.3/Applications/55E030B7-B085-4ADB-A96C-59A432D24237/HelloWorld.app/www/index.html
2013-11-30 22:16:04.849 HelloWorld[40578:80b] Multi-tasking -> Device: YES, App: YES
2013-11-30 22:16:04.863 HelloWorld[40578:80b] Unlimited access to network resources
2013-11-30 22:16:05.234 HelloWorld[40578:80b] Resetting plugins due to page load.
2013-11-30 22:16:06.112 HelloWorld[40578:80b] Finished load of: file:///Users/syous/Library/Application%20Support/iPhone%20Simulator/7.0.3/Applications/55E030B7-B085-4ADB-A96C-59A432D24237/HelloWorld.app/www/index.html
2013-11-30 23:26:13.574 HelloWorld[42394:80b] Multi-tasking -> Device: YES, App: YES
2013-11-30 23:26:13.589 HelloWorld[42394:80b] Unlimited access to network resources
2013-11-30 23:26:13.968 HelloWorld[42394:80b] Resetting plugins due to page load.
2013-11-30 23:26:14.873 HelloWorld[42394:80b] Finished load of: file:///Users/syous/Library/Application%20Support/iPhone%20Simulator/7.0.3/Applications/55E030B7-B085-4ADB-A96C-59A432D24237/HelloWorld.app/www/index.html
2013-11-30 23:27:08.031 HelloWorld[42967:80b] Multi-tasking -> Device: YES, App: YES
2013-11-30 23:27:08.046 HelloWorld[42967:80b] Unlimited access to network resources
2013-11-30 23:27:08.316 HelloWorld[42967:80b] Resetting plugins due to page load.
2013-11-30 23:27:09.273 HelloWorld[42967:80b] Finished load of: file:///Users/syous/Library/Application%20Support/iPhone%20Simulator/7.0.3/Applications/55E030B7-B085-4ADB-A96C-59A432D24237/HelloWorld.app/www/index.html
Nov 30 23:27:41 aldebaran.local HelloWorld[42967] <Error>: CGContextSetFillColorWithColor: invalid context 0x0. This is a serious error. This application, or a library it uses, is using an invalid context  and is thereby contributing to an overall degradation of system stability and reliability. This notice is a courtesy: please fix this problem. It will become a fatal error in an upcoming update.
Nov 30 23:27:41 aldebaran.local HelloWorld[42967] <Error>: CGContextSetStrokeColorWithColor: invalid context 0x0. This is a serious error. This application, or a library it uses, is using an invalid context  and is thereby contributing to an overall degradation of system stability and reliability. This notice is a courtesy: please fix this problem. It will become a fatal error in an upcoming update.
Nov 30 23:27:41 aldebaran.local HelloWorld[42967] <Error>: CGContextSaveGState: invalid context 0x0. This is a serious error. This application, or a library it uses, is using an invalid context  and is thereby contributing to an overall degradation of system stability and reliability. This notice is a courtesy: please fix this problem. It will become a fatal error in an upcoming update.
Nov 30 23:27:41 aldebaran.local HelloWorld[42967] <Error>: CGContextSetFlatness: invalid context 0x0. This is a serious error. This application, or a library it uses, is using an invalid context  and is thereby contributing to an overall degradation of system stability and reliability. This notice is a courtesy: please fix this problem. It will become a fatal error in an upcoming update.
Nov 30 23:27:41 aldebaran.local HelloWorld[42967] <Error>: CGContextAddPath: invalid context 0x0. This is a serious error. This application, or a library it uses, is using an invalid context  and is thereby contributing to an overall degradation of system stability and reliability. This notice is a courtesy: please fix this problem. It will become a fatal error in an upcoming update.
Nov 30 23:27:41 aldebaran.local HelloWorld[42967] <Error>: CGContextDrawPath: invalid context 0x0. This is a serious error. This application, or a library it uses, is using an invalid context  and is thereby contributing to an overall degradation of system stability and reliability. This notice is a courtesy: please fix this problem. It will become a fatal error in an upcoming update.
Nov 30 23:27:41 aldebaran.local HelloWorld[42967] <Error>: CGContextRestoreGState: invalid context 0x0. This is a serious error. This application, or a library it uses, is using an invalid context  and is thereby contributing to an overall degradation of system stability and reliability. This notice is a courtesy: please fix this problem. It will become a fatal error in an upcoming update.
Nov 30 23:27:41 aldebaran.local HelloWorld[42967] <Error>: CGContextSaveGState: invalid context 0x0. This is a serious error. This application, or a library it uses, is using an invalid context  and is thereby contributing to an overall degradation of system stability and reliability. This notice is a courtesy: please fix this problem. It will become a fatal error in an upcoming update.
Nov 30 23:27:41 aldebaran.local HelloWorld[42967] <Error>: CGContextSetFlatness: invalid context 0x0. This is a serious error. This application, or a library it uses, is using an invalid context  and is thereby contributing to an overall degradation of system stability and reliability. This notice is a courtesy: please fix this problem. It will become a fatal error in an upcoming update.
Nov 30 23:27:41 aldebaran.local HelloWorld[42967] <Error>: CGContextAddPath: invalid context 0x0. This is a serious error. This application, or a library it uses, is using an invalid context  and is thereby contributing to an overall degradation of system stability and reliability. This notice is a courtesy: please fix this problem. It will become a fatal error in an upcoming update.
Nov 30 23:27:41 aldebaran.local HelloWorld[42967] <Error>: CGContextDrawPath: invalid context 0x0. This is a serious error. This application, or a library it uses, is using an invalid context  and is thereby contributing to an overall degradation of system stability and reliability. This notice is a courtesy: please fix this problem. It will become a fatal error in an upcoming update.
Nov 30 23:27:41 aldebaran.local HelloWorld[42967] <Error>: CGContextRestoreGState: invalid context 0x0. This is a serious error. This application, or a library it uses, is using an invalid context  and is thereby contributing to an overall degradation of system stability and reliability. This notice is a courtesy: please fix this problem. It will become a fatal error in an upcoming update.
Nov 30 23:27:41 aldebaran.local HelloWorld[42967] <Error>: CGContextSetFillColorWithColor: invalid context 0x0. This is a serious error. This application, or a library it uses, is using an invalid context  and is thereby contributing to an overall degradation of system stability and reliability. This notice is a courtesy: please fix this problem. It will become a fatal error in an upcoming update.
Nov 30 23:27:41 aldebaran.local HelloWorld[42967] <Error>: CGContextSetStrokeColorWithColor: invalid context 0x0. This is a serious error. This application, or a library it uses, is using an invalid context  and is thereby contributing to an overall degradation of system stability and reliability. This notice is a courtesy: please fix this problem. It will become a fatal error in an upcoming update.
Nov 30 23:27:41 aldebaran.local HelloWorld[42967] <Error>: CGContextSetFillColorWithColor: invalid context 0x0. This is a serious error. This application, or a library it uses, is using an invalid context  and is thereby contributing to an overall degradation of system stability and reliability. This notice is a courtesy: please fix this problem. It will become a fatal error in an upcoming update.
Nov 30 23:27:41 aldebaran.local HelloWorld[42967] <Error>: CGContextSetStrokeColorWithColor: invalid context 0x0. This is a serious error. This application, or a library it uses, is using an invalid context  and is thereby contributing to an overall degradation of system stability and reliability. This notice is a courtesy: please fix this problem. It will become a fatal error in an upcoming update.
Nov 30 23:27:41 aldebaran.local HelloWorld[42967] <Error>: CGContextGetBlendMode: invalid context 0x0. This is a serious error. This application, or a library it uses, is using an invalid context  and is thereby contributing to an overall degradation of system stability and reliability. This notice is a courtesy: please fix this problem. It will become a fatal error in an upcoming update.
Nov 30 23:27:41 aldebaran.local HelloWorld[42967] <Error>: CGContextSetBlendMode: invalid context 0x0. This is a serious error. This application, or a library it uses, is using an invalid context  and is thereby contributing to an overall degradation of system stability and reliability. This notice is a courtesy: please fix this problem. It will become a fatal error in an upcoming update.
Nov 30 23:27:41 aldebaran.local HelloWorld[42967] <Error>: CGContextFillRects: invalid context 0x0. This is a serious error. This application, or a library it uses, is using an invalid context  and is thereby contributing to an overall degradation of system stability and reliability. This notice is a courtesy: please fix this problem. It will become a fatal error in an upcoming update.
Nov 30 23:27:41 aldebaran.local HelloWorld[42967] <Error>: CGContextSetBlendMode: invalid context 0x0. This is a serious error. This application, or a library it uses, is using an invalid context  and is thereby contributing to an overall degradation of system stability and reliability. This notice is a courtesy: please fix this problem. It will become a fatal error in an upcoming update.
Nov 30 23:27:41 aldebaran.local HelloWorld[42967] <Error>: CGContextSetFillColorWithColor: invalid context 0x0. This is a serious error. This application, or a library it uses, is using an invalid context  and is thereby contributing to an overall degradation of system stability and reliability. This notice is a courtesy: please fix this problem. It will become a fatal error in an upcoming update.
Nov 30 23:27:41 aldebaran.local HelloWorld[42967] <Error>: CGContextSetStrokeColorWithColor: invalid context 0x0. This is a serious error. This application, or a library it uses, is using an invalid context  and is thereby contributing to an overall degradation of system stability and reliability. This notice is a courtesy: please fix this problem. It will become a fatal error in an upcoming update.
Nov 30 23:27:41 aldebaran.local HelloWorld[42967] <Error>: CGContextGetBlendMode: invalid context 0x0. This is a serious error. This application, or a library it uses, is using an invalid context  and is thereby contributing to an overall degradation of system stability and reliability. This notice is a courtesy: please fix this problem. It will become a fatal error in an upcoming update.
Nov 30 23:27:41 aldebaran.local HelloWorld[42967] <Error>: CGContextSetBlendMode: invalid context 0x0. This is a serious error. This application, or a library it uses, is using an invalid context  and is thereby contributing to an overall degradation of system stability and reliability. This notice is a courtesy: please fix this problem. It will become a fatal error in an upcoming update.
Nov 30 23:27:41 aldebaran.local HelloWorld[42967] <Error>: CGContextFillRects: invalid context 0x0. This is a serious error. This application, or a library it uses, is using an invalid context  and is thereby contributing to an overall degradation of system stability and reliability. This notice is a courtesy: please fix this problem. It will become a fatal error in an upcoming update.
Nov 30 23:27:41 aldebaran.local HelloWorld[42967] <Error>: CGContextSetBlendMode: invalid context 0x0. This is a serious error. This application, or a library it uses, is using an invalid context  and is thereby contributing to an overall degradation of system stability and reliability. This notice is a courtesy: please fix this problem. It will become a fatal error in an upcoming update.
Nov 30 23:27:41 aldebaran.local HelloWorld[42967] <Error>: CGContextSetFillColorWithColor: invalid context 0x0. This is a serious error. This application, or a library it uses, is using an invalid context  and is thereby contributing to an overall degradation of system stability and reliability. This notice is a courtesy: please fix this problem. It will become a fatal error in an upcoming update.
Nov 30 23:27:41 aldebaran.local HelloWorld[42967] <Error>: CGContextSetStrokeColorWithColor: invalid context 0x0. This is a serious error. This application, or a library it uses, is using an invalid context  and is thereby contributing to an overall degradation of system stability and reliability. This notice is a courtesy: please fix this problem. It will become a fatal error in an upcoming update.
Nov 30 23:27:41 aldebaran.local HelloWorld[42967] <Error>: CGContextGetBlendMode: invalid context 0x0. This is a serious error. This application, or a library it uses, is using an invalid context  and is thereby contributing to an overall degradation of system stability and reliability. This notice is a courtesy: please fix this problem. It will become a fatal error in an upcoming update.
Nov 30 23:27:41 aldebaran.local HelloWorld[42967] <Error>: CGContextSetBlendMode: invalid context 0x0. This is a serious error. This application, or a library it uses, is using an invalid context  and is thereby contributing to an overall degradation of system stability and reliability. This notice is a courtesy: please fix this problem. It will become a fatal error in an upcoming update.
Nov 30 23:27:41 aldebaran.local HelloWorld[42967] <Error>: CGContextFillRects: invalid context 0x0. This is a serious error. This application, or a library it uses, is using an invalid context  and is thereby contributing to an overall degradation of system stability and reliability. This notice is a courtesy: please fix this problem. It will become a fatal error in an upcoming update.
Nov 30 23:27:41 aldebaran.local HelloWorld[42967] <Error>: CGContextSetBlendMode: invalid context 0x0. This is a serious error. This application, or a library it uses, is using an invalid context  and is thereby contributing to an overall degradation of system stability and reliability. This notice is a courtesy: please fix this problem. It will become a fatal error in an upcoming update.
2013-11-30 23:28:40.802 HelloWorld[43563:80b] Multi-tasking -> Device: YES, App: YES
2013-11-30 23:28:40.815 HelloWorld[43563:80b] Unlimited access to network resources
2013-11-30 23:28:41.037 HelloWorld[43563:80b] Resetting plugins due to page load.
2013-11-30 23:28:41.964 HelloWorld[43563:80b] Finished load of: file:///Users/syous/Library/Application%20Support/iPhone%20Simulator/7.0.3/Applications/55E030B7-B085-4ADB-A96C-59A432D24237/HelloWorld.app/www/index.html
2013-12-01 01:55:12.670 HelloWorld[46054:80b] Multi-tasking -> Device: YES, App: YES
2013-12-01 01:55:12.683 HelloWorld[46054:80b] Unlimited access to network resources
2013-12-01 01:55:13.142 HelloWorld[46054:80b] Resetting plugins due to page load.
2013-12-01 01:55:14.108 HelloWorld[46054:80b] Finished load of: file:///Users/syous/Library/Application%20Support/iPhone%20Simulator/7.0.3/Applications/55E030B7-B085-4ADB-A96C-59A432D24237/HelloWorld.app/www/index.html
2013-12-01 02:07:47.631 Moments[46762:80b] Multi-tasking -> Device: YES, App: YES
2013-12-01 02:07:47.644 Moments[46762:80b] Unlimited access to network resources
2013-12-01 02:07:47.650 Moments[46762:80b] Fix applied for database locations?: YES
2013-12-01 02:07:48.009 Moments[46762:80b] Resetting plugins due to page load.
2013-12-01 02:07:48.828 Moments[46762:80b] Finished load of: file:///Users/syous/Library/Application%20Support/iPhone%20Simulator/7.0.3/Applications/B31C27A1-AD94-4049-951A-B2CE6B0590ED/Moments.app/www/index.html
2013-12-01 04:49:04.784 Moments[48967:80b] Multi-tasking -> Device: YES, App: YES
2013-12-01 04:49:04.797 Moments[48967:80b] Unlimited access to network resources
2013-12-01 04:49:05.024 Moments[48967:80b] Resetting plugins due to page load.
2013-12-01 04:49:05.941 Moments[48967:80b] Finished load of: file:///Users/syous/Library/Application%20Support/iPhone%20Simulator/7.0.3/Applications/B31C27A1-AD94-4049-951A-B2CE6B0590ED/Moments.app/www/index.html
2013-12-01 04:50:22.826 Moments[49561:80b] Multi-tasking -> Device: YES, App: YES
2013-12-01 04:50:22.839 Moments[49561:80b] Unlimited access to network resources
2013-12-01 04:50:23.118 Moments[49561:80b] Resetting plugins due to page load.
2013-12-01 04:50:23.963 Moments[49561:80b] Finished load of: file:///Users/syous/Library/Application%20Support/iPhone%20Simulator/7.0.3/Applications/B31C27A1-AD94-4049-951A-B2CE6B0590ED/Moments.app/www/index.html
2013-12-01 05:08:08.774 Moments[50429:80b] Multi-tasking -> Device: YES, App: YES
2013-12-01 05:08:08.787 Moments[50429:80b] Unlimited access to network resources
2013-12-01 05:08:09.239 Moments[50429:80b] Resetting plugins due to page load.
2013-12-01 05:08:10.113 Moments[50429:80b] Finished load of: file:///Users/syous/Library/Application%20Support/iPhone%20Simulator/7.0.3/Applications/B31C27A1-AD94-4049-951A-B2CE6B0590ED/Moments.app/www/index.html
2013-12-01 05:10:14.949 Moments[52006:80b] Multi-tasking -> Device: YES, App: YES
2013-12-01 05:10:14.962 Moments[52006:80b] Unlimited access to network resources
2013-12-01 05:10:15.380 Moments[52006:80b] Resetting plugins due to page load.
2013-12-01 05:10:16.591 Moments[52006:80b] Finished load of: file:///Users/syous/Library/Application%20Support/iPhone%20Simulator/7.0.3/Applications/B31C27A1-AD94-4049-951A-B2CE6B0590ED/Moments.app/www/index.html
2013-12-01 05:13:32.124 Moments[52790:80b] Multi-tasking -> Device: YES, App: YES
2013-12-01 05:13:32.139 Moments[52790:80b] Unlimited access to network resources
2013-12-01 05:13:33.125 Moments[52790:80b] Resetting plugins due to page load.
2013-12-01 05:13:34.861 Moments[52790:80b] Finished load of: file:///Users/syous/Library/Application%20Support/iPhone%20Simulator/7.0.3/Applications/B31C27A1-AD94-4049-951A-B2CE6B0590ED/Moments.app/www/index.html
2013-12-01 15:42:57.789 Moments[54635:80b] Multi-tasking -> Device: YES, App: YES
2013-12-01 15:42:57.802 Moments[54635:80b] Unlimited access to network resources
2013-12-01 15:42:58.086 Moments[54635:80b] Resetting plugins due to page load.
2013-12-01 15:42:58.946 Moments[54635:80b] Finished load of: file:///Users/syous/Library/Application%20Support/iPhone%20Simulator/7.0.3/Applications/B31C27A1-AD94-4049-951A-B2CE6B0590ED/Moments.app/www/index.html
2013-12-01 15:45:21.306 Moments[55238:80b] Multi-tasking -> Device: YES, App: YES
2013-12-01 15:45:21.319 Moments[55238:80b] Unlimited access to network resources
2013-12-01 15:45:21.533 Moments[55238:80b] Resetting plugins due to page load.
2013-12-01 15:45:22.487 Moments[55238:80b] Finished load of: file:///Users/syous/Library/Application%20Support/iPhone%20Simulator/7.0.3/Applications/B31C27A1-AD94-4049-951A-B2CE6B0590ED/Moments.app/www/index.html
